{
  "type": "service_account",
  "project_id": "ecocraft-team",
  "private_key_id": "31a37bfd3f7be21a8c96f415baaf9f8a45dddc96",
  "private_key": "-----BEGIN PRIVATE KEY-----\nMIIEvQIBADANBgkqhkiG9w0BAQEFAASCBKcwggSjAgEAAoIBAQCw/IHiHtof8pOg\niJLb7aYXP5RAH2IERA/N0PCci0jNhJ4K/HkAbkHQkXdQisqnrst1YRkLw7PTx/Zs\n2wfHNkUQFQ2JSW1vCAJ3kxaDt2q6iKYTraWPNmSHtkukMZPskkIH9fPHm3KcTReq\ncUCq/BoeZKdTAC0mu9T3ebLmOIXiQNiBdQ+2I6hRSS6Mc6kdHzCzL4xTBJoLS0sK\nSBLzBQsxhnhppd/t0raJt3UYEBDPFUwTH99CF4bV8B4AoFOh48sMYhfibIllbH5J\n6EbtQU1goSVOjYMtRyKaQ47Z+IWPXp9LCS5u9dcmvS94bDpR+qHNeR+i+9XWKc/d\nNz20ix6RAgMBAAECggEATtsyw50bcsCSJiSzymnIZvNdCnTxJxVsNTey/QzSEz/T\navGyuA5oJJWro6czRCMNY+8vSZ6YsPOXSEkO3iPAAbpfnZuptp7K+pv+nBFM7G+W\nD45/BaAmipEegrnUPsOryAA97eHE3v86XCa5uXU57fDK3KBnfaqS6PDAVPM6M+QS\nxxMI8mQg1S/RAh2IwulbLx8NNhqlhhsU/tZmnLGJoEYQZoYawQEWPavssbZzMtHm\nn2fuerA14JYL6iONTNcFBcpNpn8WaOHh6VC2BDdQIiV2KSLTM9mPbe5dPGr3B4MN\nBAEUbZ8cQCeh4Wwe0bdhBy4y4XvCfQL/edtK+lv2QQKBgQDcctxw35ElkyDs2wsa\n23xL6GxqD9hTfH2CX3RssfpPLcCqfo/r0+B3dWoJddB8/795zDl+NTkse213jDxD\nRg4OR7qCKXxrG8AMop0YlBYnnHu+DkGI5NY3Oc2ti00GoJ/ogeXcXPOwvI5jabKn\nSfJVHiV0s6FmMwAxOyC/+J8AVwKBgQDNh1Iz5t6mtifr9/qgNSIjj3oVT952Po/T\nYaTj8o6tRSSfqGYJ6/kOakV5Zr6fXxJETuiActv2nJ15JQAfpSkLNZTCCr8MrwTc\nuYGc+zVZccGYf+cDM7V8EuiGvG66G0ODhhqMt1xCedwEgjAajhR6tRW3+7WUT+6Y\nWTD15jlnVwKBgQCfV9rlL4RP36A99Dp7qEiY6aBrrZZVCjgCY5LY+nCOiOiplB/d\ne2HVlyYVPnZ707SIikjIZBo2f+TpM5FfoySHx+sVKH2JQh64Q1ZALNIywZZkExPl\nqlr4wixcE8OSVcogGryWYw22IyTc0MrUxsuGIOs8BpdUMushqraKbGApswKBgCnd\n1OrprpU7KeqxewZDjI693VqWCHUBzX57t4EPmezF1u4G+bIvtW4wS7KtMUt5rFjp\n0gbIXvJfeNyCowHPPQshgQn98mj9BfqId1So/3cW6x7Lfx1x3RhHKcK4g725bAlQ\nufvMJikMdbsdYfsm0hkk5iWySozJs4qpMIYGvc7FAoGATfn27lxC/bUpYQJRbrd5\nzjP00jINhINoFYr8XLHMzHxcUbjOK0OieSp+Zy09H/cTGfLGeTq7F2EPFIP/BG4N\nGYwsNJOUB2p6HPeV92v1EDb8tyoQyU9QazT9xZ0oVgcKL1018Ap1e/jo256QCR1D\n8vz2jyKPZ/X+vsUPpYYjI+I=\n-----END PRIVATE KEY-----\n",
  "client_email": "firebase-adminsdk-c931h@ecocraft-team.iam.gserviceaccount.com",
  "client_id": "113710297229739063851",
  "auth_uri": "https://accounts.google.com/o/oauth2/auth",
  "token_uri": "https://oauth2.googleapis.com/token",
  "auth_provider_x509_cert_url": "https://www.googleapis.com/oauth2/v1/certs",
  "client_x509_cert_url": "https://www.googleapis.com/robot/v1/metadata/x509/firebase-adminsdk-c931h%40ecocraft-team.iam.gserviceaccount.com",
  "universe_domain": "googleapis.com"
}
